9d02234d6abd5332675957506e4d8144c515e986  hwloc-1.6.1.tar.bz2
bb79c1fe01a46ea9249efe83fa133c3da43b40d0  hwloc-1.6.1.tar.gz
f9d9938d427e65257d1745ffc1d10634251cdc09  hwloc-1.6.2.tar.bz2
aa9d9ca75c7d7164f6bf3a52ecd77340eec02c18  hwloc-1.6.2.tar.gz
a9c0bbcd49350b6cbe45efdc75e5962863239ebb  hwloc-1.6.tar.bz2
cdf855648c02b24ed3f70df6423470830a4cf911  hwloc-1.6.tar.gz
f63007fe8a866406e91819bece8c42e08fee2d69  hwloc-win32-build-1.6.1.zip
11d2534a2ab5b3294896cccd3ba3405e8f8050df  hwloc-win32-build-1.6.2.zip
5c8ddabb351a892494529ca5b5e1cc6bbb9462dd  hwloc-win32-build-1.6.zip
d147d701a16940a92ed99a6985a2557b8391b026  hwloc-win64-build-1.6.1.zip
4c6921f8e64a1babbc0bbc11ec7dd068a4371af3  hwloc-win64-build-1.6.2.zip
8046d51844c534589812633f62946da41bb14c6b  hwloc-win64-build-1.6.zip
