c42480b172e33f33beb2a985afb8d461  openmpi-1.3.1-1.src.rpm
843a202e4024f8a8e55d35f251bf61e6  openmpi-1.3-1.src.rpm
d759523b0752139872c534714d641d64  openmpi-1.3.1.tar.bz2
0ba975e2ddc2d300237be556033ef804  openmpi-1.3.1.tar.gz
5fcbb81dd053b02988828455f59231f8  openmpi-1.3.2-1.src.rpm
75781dc31255cd841701c065e239d994  openmpi-1.3.2.tar.bz2
4ad8fb796f56c8cfe74cef6d90e547eb  openmpi-1.3.2.tar.gz
6ea0bd823a70d1e0de609bf5414ba07a  openmpi-1.3.3-1.src.rpm
f6cdc9c195daa8571b2e509e952d6755  openmpi-1.3.3.tar.bz2
35bdd634dc682967731d2699595d2a3f  openmpi-1.3.3.tar.gz
c0602c1b94663f1e487b4b10a8139da5  openmpi-1.3.4-1.src.rpm
978c29f3b671856daa0fc67459b73e01  openmpi-1.3.4.tar.bz2
ddfffb6582e563d64a529fa0c0943387  openmpi-1.3.4.tar.gz
978c29f3b671856daa0fc67459b73e01  openmpi-1.3stable.tar.bz2
ddfffb6582e563d64a529fa0c0943387  openmpi-1.3stable.tar.gz
efbba7d652d1e430d456f65d7a2e339b  openmpi-1.3.tar.bz2
2ba4a2b81ada0859adc863edc52d8e1b  openmpi-1.3.tar.gz
