a1bb9959332c6a60dfa7a4940987d2a2ba9619e4  openmpi-1.5.1-1.src.rpm
936244cb3d9fa0c6528150f69fe612715f9e5e09  openmpi-1.5-1.src.rpm
fe21acc211fe60e30dc6bef1c83a70c34e093998  openmpi-1.5.1.tar.bz2
e774f3ab6e1722cd22e7fea66f3f641d3eeed6f6  openmpi-1.5.1.tar.gz
8b5f3d67d761202ceab2a129d0b3060383513ba5  openmpi-1.5.2-1.src.rpm
a09361c5b2abe46c58641205ff93d7a19fa458f7  openmpi-1.5.2.tar.bz2
324b87e19922e4c42dba5c4e6eeb3bd5116791bc  openmpi-1.5.2.tar.gz
977d01a6714a5b9263d2f02a6f4dece925f95f4b  openmpi-1.5.3-2.src.rpm
669565c708deab82ad4069d82675b2020eb0e0c6  openmpi-1.5.3.tar.bz2
aaaa0b46718157111d6c9c86560a7220079e9a72  openmpi-1.5.3.tar.gz
cd849f256aad6ac498ec3d4919688abfefc6a313  openmpi-1.5.4-1.src.rpm
81f7736a83b2134ba20c2e5c380b4d267cfd9d9c  openmpi-1.5.4.tar.bz2
db7dce88335be618c49ac2e95241d42d9e7e9f0e  openmpi-1.5.4.tar.gz
19d78b47c14754e8525e6d77498947288763c4ab  openmpi-1.5.5-1.src.rpm
efd8fc93d67364ac1e7095fdf21c471cbd70c233  openmpi-1.5.5-2.src.rpm
206e555f6d376443f2342f721d944e67dd1a04ef  openmpi-1.5.5.tar.bz2
a1aa526772bc0e962e5f5e61c63a7ec07181d9ad  openmpi-1.5.5.tar.gz
206e555f6d376443f2342f721d944e67dd1a04ef  openmpi-1.5stable.tar.bz2
a1aa526772bc0e962e5f5e61c63a7ec07181d9ad  openmpi-1.5stable.tar.gz
8d89a5a666ccc8f174f6ee9b26ba231698ca8e68  openmpi-1.5.tar.bz2
39feb0ee01d85b036b1407017549dd8b902c04c3  openmpi-1.5.tar.gz
15a017e3ac66fc897a1eb32da62301726021d311  OpenMPI_v1.5.1-win32.exe
977340283c9ca29298ba19f6451491585467c823  OpenMPI_v1.5.1-win64.exe
ae1f3ec24a8d5d6b321882765147a4d9bf38611e  OpenMPI_v1.5.2-2_win32.exe
67a91e4efd9e6f98740b17aa611d624b8c8a6bb9  OpenMPI_v1.5.2-2_win64.exe
abb2418452ed759a038c0870202d15c6e1f3297b  OpenMPI_v1.5.2-win32.exe
174709bdc041d9086430b097144a7880a01b17c0  OpenMPI_v1.5.2-win64.exe
d3bdb37daed8dd5526ff86c3e8a30b79e171755a  OpenMPI_v1.5.3-2_win32.exe
a0eecf67becd8e4251d11b3303fd92635feb1141  OpenMPI_v1.5.3-2_win64.exe
1f7d5ba90880bb6b7dc29f4a4e9689fda7b0c3b8  OpenMPI_v1.5.4-1_win32.exe
4017b7a476113be506f1558400e3b991d4462e03  OpenMPI_v1.5.4-1_win64.exe
76cc9e649b61a1aadb85eb5e388d55f80097e6ed  OpenMPI_v1.5.5-1_win32.exe
18d5e38073f3e3a04aa791a121a343d50aaa06f5  OpenMPI_v1.5.5-1_win64.exe
9b5d43686fcec9f82ddc5eb3946e62a4d4bf3393  OpenMPI_v1.5.5rc2-1_win32.exe
125d499ce99fa67fb9dc7ca18d847013ff726cfa  OpenMPI_v1.5.5rc2-1_win64.exe
