fa260ad232459b85f184d918b9059995  hwloc-1.0.1.tar.bz2
3ca5691f9d4c1204fae8600e30904833  hwloc-1.0.1.tar.gz
54a333f64250c2ea0a438471fc329e1f  hwloc-1.0.2.tar.bz2
faa9b74aaa7d1c2dae674de696818345  hwloc-1.0.2.tar.gz
6cb25ca87fae010605ea6add41764ab2  hwloc-1.0.3.tar.bz2
83838217d8074cf161b6247456a257e6  hwloc-1.0.3.tar.gz
0fdf8af199bf90fc2901c2a5ffc6e3fe  hwloc-1.0.tar.bz2
947396fb91f887972ef1992fb1c71781  hwloc-1.0.tar.gz
0ce9bb473d40cb5afc32479cc0d97a33  hwloc-win32-build-1.0.1.zip
dead3867252c76825bf11f217387d43b  hwloc-win32-build-1.0.2.zip
9d29aab0fc6289646cf896411fb8a359  hwloc-win32-build-1.0.3.zip
6955248a1df7a22e8b7d7ae7d08957ba  hwloc-win32-build-1.0.zip
