d6bf836ad3159eb34e8766ea21d3a2cc  hwloc-0.9.1.tar.bz2
0490aaeec2d5760e286fab03d8b162f3  hwloc-0.9.1.tar.gz
3409eae8a79027b473ccb9cb3b5c1c1a  hwloc-0.9.2.tar.bz2
45bff84f340f9973b9eb53c6fe0ecbf8  hwloc-0.9.2.tar.gz
a93d1ec36e044e9638f5d0e6f9ea8fbb  hwloc-0.9.3.tar.bz2
e97cd85a7fddd20c7a50e3a19c71a4a6  hwloc-0.9.3.tar.gz
776fa615e40d95c729e512da010b228d  hwloc-win32-build-0.9.2.zip
37dfc9729faf19e84a5bb96f9edbbb2f  hwloc-win32-build-0.9.3.zip
fd2278a80ea15f885339dba648e26aa7  libtopology-0.9.tar.gz
ac0ef94a3426f61643034ec8451d517b  libtopology-win32-build-0.9.zip
